waveform.vcd
$date
   Tue Jun 17 08:41:49 2025
$end

$version
  2024.1
  $dumpfile ("waveform.vcd") 
$end

$timescale
  1ps
$end

$scope module top_tb $end
$var reg 1 ! clk $end
$var reg 1 " rst_n $end
$scope module mem_if $end
$var wire 1 # clk $end
$var reg 32 $ addr [31:0] $end
$var reg 32 % data_in [31:0] $end
$var reg 32 & data_out [31:0] $end
$var reg 1 ' mem_read $end
$var reg 1 ( mem_write $end
$var reg 1 ) data_rd_en_ctrl $end
$scope module dut_mp $end
$var reg 32 $ addr [31:0] $end
$var reg 32 % data_in [31:0] $end
$var reg 1 ' mem_read $end
$var reg 1 ( mem_write $end
$var reg 1 ) data_rd_en_ctrl $end
$var reg 32 & data_out [31:0] $end
$var wire 1 # clk $end
$upscope $end
$scope module uvm_mp $end
$var reg 32 & data_out [31:0] $end
$var wire 1 # clk $end
$var reg 32 $ addr [31:0] $end
$var reg 32 % data_in [31:0] $end
$var reg 1 ' mem_read $end
$var reg 1 ( mem_write $end
$var reg 1 ) data_rd_en_ctrl $end
$upscope $end
$upscope $end
$scope module dut $end
$var wire 1 * clk $end
$var wire 1 + rst_n $end
$scope module dut_inst $end
$var wire 1 * clk $end
$var wire 1 + rst_n $end
$var wire 1 , i_instr_ready $end
$var wire 32 - i_instr_data $end
$var reg 4 . o_inst_rd_en [3:0] $end
$var reg 32 / o_inst_addr [31:0] $end
$var wire 1 , i_data_ready $end
$var wire 32 0 i_data_rd $end
$var reg 32 1 o_data_wr $end
$var reg 32 2 o_data_addr $end
$var reg 4 3 o_data_rd_en_ctrl [3:0] $end
$var reg 1 4 o_data_rd_en_ma $end
$var reg 1 5 o_data_wr_en_ma $end
$var reg 1 6 if_clk_en $end
$var reg 1 7 id_clk_en $end
$var reg 1 8 ex_clk_en $end
$var reg 1 9 ma_clk_en $end
$var reg 1 : flush $end
$var reg 32 ; jump_addr [31:0] $end
$var reg 32 < if_inst [31:0] $end
$var reg 32 = if_pc [31:0] $end
$var reg 1 > id_mem_to_reg $end
$var reg 1 ? id_alu_src1 $end
$var reg 1 @ id_alu_src2 $end
$var reg 1 A id_reg_wr $end
$var reg 1 B id_mem_rd $end
$var reg 1 C id_mem_wr $end
$var reg 1 D id_branch $end
$var reg 1 E id_jump $end
$var reg 32 F id_pc [31:0] $end
$var reg 32 G id_reg_read_data1 [31:0] $end
$var reg 32 H id_reg_read_data2 [31:0] $end
$var reg 32 I id_imm [31:0] $end
$var reg 5 J id_reg_destination [4:0] $end
$var reg 3 K id_funct3 [2:0] $end
$var reg 7 L id_funct7 [6:0] $end
$var reg 1 M id_result_src $end
$var reg 4 N id_alu_op $end
$var reg 5 O ma_reg_destination [4:0] $end
$var reg 1 P ma_reg_wr $end
$var reg 32 Q wb_data [31:0] $end
$var reg 1 R ex_mem_to_reg $end
$var reg 1 S ex_reg_wr $end
$var reg 1 T ex_mem_rd $end
$var reg 1 U ex_mem_wr $end
$var reg 1 V ex_result_src $end
$var reg 32 W ex_pc_plus_4 [31:0] $end
$var reg 32 X ex_alu_result [31:0] $end
$var reg 32 Y ex_data2 [31:0] $end
$var reg 5 Z ex_reg_destination [4:0] $end
$var reg 3 [ ex_funct3 [2:0] $end
$var reg 7 \ ex_funct7 [6:0] $end
$var reg 1 ] ma_mem_to_reg $end
$var reg 1 ^ ma_rw_sel $end
$var reg 32 _ ma_pc_plus_4 [31:0] $end
$var reg 32 ` ma_read_data [31:0] $end
$var reg 32 a ma_result [31:0] $end
$scope module if_stage $end
$var wire 1 * clk $end
$var wire 1 + rst_n $end
$var wire 1 b clk_en_if_pc $end
$var wire 1 c clk_en_if_reg $end
$var wire 1 d i_flush $end
$var wire 32 e i_jump_addr [31:0] $end
$var wire 32 - i_inst_data [31:0] $end
$var reg 4 . o_inst_rd_enable [3:0] $end
$var reg 32 / o_inst_addr [31:0] $end
$var reg 32 < o_if_inst [31:0] $end
$var reg 32 = o_if_pc [31:0] $end
$var reg 32 f pc [31:0] $end
$var reg 32 g pc_current [31:0] $end
$var reg 32 h pc_mux_data [31:0] $end
$var reg 32 i pc_adder_data [31:0] $end
$var reg 1 j mem_valid $end
$upscope $end
$scope module id_stage $end
$var wire 1 * clk $end
$var wire 1 k clk_en $end
$var wire 1 + rst_n $end
$var wire 32 l i_if_inst [31:0] $end
$var wire 32 m i_if_pc $end
$var wire 1 n i_flush $end
$var wire 1 o i_insert_nop $end
$var wire 5 p i_ma_reg_destination [4:0] $end
$var wire 1 q i_ma_reg_wr $end
$var wire 32 r i_wb_data $end
$var reg 1 > o_id_mem_to_reg $end
$var reg 1 ? o_id_alu_src1 $end
$var reg 1 @ o_id_alu_src2 $end
$var reg 1 A o_id_reg_wr $end
$var reg 1 B o_id_mem_rd $end
$var reg 1 C o_id_mem_wr $end
$var reg 1 M o_id_result_src $end
$var reg 1 D o_id_branch $end
$var reg 4 N o_id_alu_op $end
$var reg 1 E o_id_jump $end
$var reg 32 F o_id_pc $end
$var reg 32 G o_id_reg_read_data1 $end
$var reg 32 H o_id_reg_read_data2 $end
$var reg 32 I o_id_imm $end
$var reg 5 J o_id_reg_destination [4:0] $end
$var reg 3 K o_id_funct3 [2:0] $end
$var reg 7 L o_id_funct7 [6:0] $end
$var reg 7 s opcode $end
$var reg 5 t read_reg1_addr [4:0] $end
$var reg 5 u read_reg2_addr [4:0] $end
$var reg 5 v write_reg_addr [4:0] $end
$var reg 3 w funct3 [2:0] $end
$var reg 7 x funct7 [6:0] $end
$var reg 32 y id_instruction [31:0] $end
$var reg 4 z alu_op $end
$var reg 1 { alu_src1 $end
$var reg 1 | alu_src2 $end
$var reg 1 } reg_write $end
$var reg 1 ~ mem_write $end
$var reg 1 !! mem_read $end
$var reg 1 "! mem_to_reg $end
$var reg 1 #! branch $end
$var reg 1 $! jump $end
$var reg 2 %! result_src [1:0] $end
$var reg 3 &! imm_src $end
$var reg 32 '! rs1 $end
$var reg 32 (! rs2 $end
$var reg 32 )! immG $end
$scope module id_controller $end
$var wire 7 *! i_opcode $end
$var wire 3 +! i_funct3 [2:0] $end
$var wire 7 ,! i_funct7 [6:0] $end
$var reg 4 z o_alu_control $end
$var reg 1 } o_reg_write $end
$var reg 1 { o_alu_src1 $end
$var reg 1 | o_alu_src2 $end
$var reg 1 ~ o_mem_write $end
$var reg 1 !! o_mem_read $end
$var reg 1 "! o_mem_to_reg $end
$var reg 1 #! o_branch $end
$var reg 1 $! o_jump $end
$var reg 3 &! o_imm_src $end
$var reg 2 %! o_result_src [1:0] $end
$upscope $end
$scope module id_reg_file $end
$var wire 1 * i_clk $end
$var wire 1 + i_rst_n $end
$var wire 5 -! i_read_register1_addr [4:0] $end
$var wire 5 .! i_read_register2_addr [4:0] $end
$var wire 5 p i_write_register_addr [4:0] $end
$var wire 1 q i_wr_reg_en $end
$var wire 32 r i_write_data [31:0] $end
$var reg 32 '! o_read_data1 [31:0] $end
$var reg 32 (! o_read_data2 [31:0] $end
$upscope $end
$scope module imm_extend $end
$var wire 25 /! i_instr [31:7] $end
$var wire 3 0! i_imm_src $end
$var reg 32 )! o_imm_out [31:0] $end
$upscope $end
$upscope $end
$scope module ex_stage $end
$var wire 1 * clk $end
$var wire 1 1! clk_en $end
$var wire 1 + rst_n $end
$var wire 1 2! i_id_mem_to_reg $end
$var wire 1 3! i_id_alu_src1 $end
$var wire 1 4! i_id_alu_src2 $end
$var wire 1 5! i_id_reg_wr $end
$var wire 1 6! i_id_mem_rd $end
$var wire 1 7! i_id_mem_wr $end
$var wire 1 8! i_id_result_src $end
$var wire 1 9! i_id_branch $end
$var wire 4 :! i_id_alu_op $end
$var wire 1 ;! i_id_jump $end
$var wire 32 <! i_id_pc $end
$var wire 32 =! i_id_reg_read_data1 $end
$var wire 32 >! i_id_reg_read_data2 $end
$var wire 32 ?! i_id_imm $end
$var wire 5 @! i_id_reg_destination [4:0] $end
$var wire 3 A! i_id_funct3 [2:0] $end
$var wire 7 B! i_id_funct7 [6:0] $end
$var reg 1 R o_ex_mem_to_reg $end
$var reg 1 S o_ex_reg_wr $end
$var reg 1 T o_ex_mem_rd $end
$var reg 1 U o_ex_mem_wr $end
$var reg 1 V o_ex_result_src $end
$var reg 5 Z o_ex_reg_destination [4:0] $end
$var reg 3 [ o_ex_funct3 [2:0] $end
$var reg 7 \ o_ex_funct7 [6:0] $end
$var reg 1 : o_ex_flush $end
$var reg 32 ; o_ex_jump_addr $end
$var reg 32 W o_ex_pc_plus_4 $end
$var reg 32 X o_ex_alu_result $end
$var reg 32 Y o_ex_data2 $end
$var reg 1 C! flush $end
$var reg 32 D! jump_addr $end
$var reg 32 E! pc_plus_4 $end
$var reg 32 F! alu_result $end
$var reg 32 G! SrcA $end
$var reg 32 H! SrcB $end
$scope module select_SrcA $end
$var wire 32 =! in0 [31:0] $end
$var wire 32 <! in1 [31:0] $end
$var wire 1 3! sel $end
$var reg 32 G! out [31:0] $end
$upscope $end
$scope module select_SrcB $end
$var wire 32 >! in0 [31:0] $end
$var wire 32 ?! in1 [31:0] $end
$var wire 1 4! sel $end
$var reg 32 H! out [31:0] $end
$upscope $end
$scope module alu_instance $end
$var wire 32 I! SrcA $end
$var wire 32 J! SrcB $end
$var wire 4 :! Operation $end
$var reg 32 F! ALUResult $end
$upscope $end
$scope module branch_unit_instance $end
$var wire 32 <! current_PC $end
$var wire 32 ?! imm $end
$var wire 1 ;! jump $end
$var wire 1 9! branch $end
$var wire 32 K! aluResult $end
$var reg 32 E! PC_plus_4 $end
$var reg 32 D! jump_addr $end
$var reg 1 C! flush $end
$var reg 32 L! PC_imm $end
$var reg 1 M! branch_sel $end
$upscope $end
$upscope $end
$scope module ma_stage $end
$var wire 1 * clk $end
$var wire 1 + rst_n $end
$var wire 1 N! clk_en $end
$var wire 32 0 i_data_rd [31:0] $end
$var wire 1 O! i_ex_mem_to_reg $end
$var wire 1 P! i_ex_rw_sel $end
$var wire 1 Q! i_ex_reg_wr $end
$var wire 1 R! i_ex_mem_rd $end
$var wire 1 S! i_ex_mem_wr $end
$var wire 32 T! i_ex_pc_plus_4 [31:0] $end
$var wire 32 U! i_ex_alu_result [31:0] $end
$var wire 32 V! i_ex_reg_read_data2 [31:0] $end
$var wire 5 W! i_ex_reg_dest [4:0] $end
$var wire 3 X! i_ex_funct3 [2:0] $end
$var wire 7 Y! i_ex_funct7 [6:0] $end
$var reg 32 1 o_data_wr [31:0] $end
$var reg 32 2 o_data_addr [31:0] $end
$var reg 4 3 o_data_rd_en_ctrl [3:0] $end
$var reg 1 4 o_data_rd_en_ma $end
$var reg 1 5 o_data_wr_en_ma $end
$var reg 1 ] o_ma_mem_to_reg $end
$var reg 1 ^ o_ma_rw_sel $end
$var reg 32 _ o_ma_pc_plus_4 [31:0] $end
$var reg 32 ` o_ma_read_data [31:0] $end
$var reg 32 a o_ma_result [31:0] $end
$var reg 5 O o_ma_reg_dest [4:0] $end
$var reg 1 P o_ma_reg_wr $end
$upscope $end
$scope module wb_stage $end
$var wire 1 Z! i_ma_mem_to_reg $end
$var wire 1 [! i_ma_rw_sel $end
$var wire 32 \! i_ma_pc_plus_4 [31:0] $end
$var wire 32 ]! i_ma_read_data [31:0] $end
$var wire 32 ^! i_ma_result [31:0] $end
$var reg 32 Q o_wb_data [31:0] $end
$var reg 32 _! mux2_out [31:0] $end
$scope module mux_select_mem_or_alu $end
$var wire 32 ^! in0 [31:0] $end
$var wire 32 ]! in1 [31:0] $end
$var wire 1 Z! sel $end
$var reg 32 _! out [31:0] $end
$upscope $end
$scope module mux_select_final_data $end
$var wire 32 `! in0 [31:0] $end
$var wire 32 \! in1 [31:0] $end
$var wire 1 [! sel $end
$var reg 32 Q out [31:0] $end
$upscope $end
$upscope $end
$scope module hc $end
$var wire 1 * clk $end
$var wire 1 , i_instr_ready $end
$var wire 1 , i_data_ready $end
$var wire 5 a! i_if_reg_src1 [4:0] $end
$var wire 5 b! i_if_reg_src2 [4:0] $end
$var wire 5 c! i_id_reg_dest [4:0] $end
$var wire 1 d! i_id_reg_wr $end
$var wire 5 e! i_ex_reg_dest [4:0] $end
$var wire 1 f! i_ex_reg_wr $end
$var wire 5 g! i_ma_reg_dest [4:0] $end
$var wire 1 h! i_ma_reg_wr $end
$var wire 1 i! i_id_branch $end
$var reg 1 6 o_if_clk_en $end
$var reg 1 7 o_id_clk_en $end
$var reg 1 8 o_ex_clk_en $end
$var reg 1 9 o_ma_clk_en $end
$var reg 1 j! data_hazard $end
$var reg 1 k! structural_hazard $end
$var reg 1 l! control_hazard $end
$var reg 1 m! stall $end
$upscope $end
$upscope $end
$upscope $end
$upscope $end
$enddefinitions $end

#0
$dumpvars
0!
0!!
0"
0"!
0#
0#!
b0 $
0$!
b0 %
b0 %!
b0 &
b0 &!
0'
b0 '!
0(
b0 (!
1)
b0 )!
0*
b0 *!
0+
b0 +!
1,
b0 ,!
b10011 -
b0 -!
b1111 .
b0 .!
b0 /
b0 /!
b0 0
b0 0!
b0 1
11!
b0 2
02!
b1 3
03!
04
04!
05
05!
16
06!
17
07!
18
08!
19
09!
0:
b0 :!
b0 ;
0;!
b0 <
b0 <!
b0 =
b0 =!
0>
b0 >!
0?
b0 ?!
0@
b0 @!
0A
b0 A!
0B
b0 B!
0C
0C!
0D
b0 D!
0E
b100 E!
b0 F
b0 F!
b0 G
b0 G!
b0 H
b0 H!
b0 I
b0 I!
b0 J
b0 J!
b0 K
b0 K!
b0 L
b0 L!
0M
0M!
b0 N
1N!
b0 O
0O!
0P
0P!
b0 Q
0Q!
0R
0R!
0S
0S!
0T
b0 T!
0U
b0 U!
0V
b0 V!
b0 W
b0 W!
b0 X
b0 X!
b0 Y
b0 Y!
b0 Z
0Z!
b0 [
0[!
b0 \
b0 \!
0]
b0 ]!
0^
b0 ^!
b0 _
b0 _!
b0 `
b0 `!
b0 a
b0 a!
1b
b0 b!
1c
b0 c!
0d
0d!
b0 e
b0 e!
b0 f
0f!
bx g
b0 g!
b100 h
0h!
b100 i
0i!
0j
0j!
1k
0k!
b0 l
0l!
b0 m
0m!
0n
0o
b0 p
0q
b0 r
b0 s
b0 t
b0 u
b0 v
b0 w
b0 x
b0 y
b0 z
0{
0|
0}
0~
$end

#5000
1!
1#
b11001010111111101011101010111110 %
1(
1*

#10000
0!
0#
0*

#15000
1!
1#
0(
1*

#20000
0!
0#
0*

#25000
1!
1#
1'
1*

#30000
0!
0#
0*

#35000
1!
1#
0'
1*

#40000
0!
0#
0*

#45000
1!
1#
b100 $
b11011110101011011011111011101111 %
1(
1*

#50000
0!
0#
0*

#55000
1!
1#
0(
1*

#60000
0!
0#
0*

#65000
1!
1#
1'
1*

#70000
0!
0#
0*

#75000
1!
1#
0'
1*

#80000
0!
0#
0*

#85000
1!
1#
b1000 $
b10010001101000101011001111000 %
1(
1*

#90000
0!
0#
0*

#95000
1!
1#
0(
1*

#100000
0!
1"
0#
0*
1+

#105000
1!
1#
1'
1*
b100 /
b100 T!
b100 W
b100 f
b0 g
b1000 h
b1000 i
1j

#110000
0!
0#
0*

#115000
1!
1#
bx &
0'
1*
b10011 *!
b1000 /
b0 /!
bx 0
b10011 <
b100 \!
b100 _
b1000 f
b100 g
b1100 h
b1100 i
b10011 l
b10011 s
b10011 y
1|
1}

#120000
0!
0#
0*

#125000
1!
1#
b1100 $
b11111111111111111111111111111111 %
1(
1*
b1100 /
14!
15!
b100 =
1@
1A
bx ]!
bx `
1d!
b1100 f
b1000 g
b10000 h
b10000 i
b100 m

#130000
0!
0#
0*

#135000
1!
1#
0(
1*
b10000 /
b100 <!
b1000 =
b1000 E!
b100 F
b100 L!
1Q!
1S
b10000 f
1f!
b1100 g
b10100 h
b10100 i
b1000 m

#140000
0!
0#
0*

#145000
1!
1#
1'
1*
b10100 /
b1000 <!
b1100 =
b1100 E!
b1000 F
b1000 L!
1P
b1000 T!
b1000 W
b10100 f
b10000 g
b11000 h
1h!
b11000 i
b1100 m
1q

#150000
0!
0#
0*

#155000
1!
1#
b11111111111111111111111111111111 &
0'
1*
b11000 /
b11111111111111111111111111111111 0
b1100 <!
b10000 =
b10000 E!
b1100 F
b1100 L!
b1100 T!
b1100 W
b1000 \!
b1000 _
b11000 f
b10100 g
b11100 h
b11100 i
b10000 m

#160000
0!
0#
0*

#165000
1!
1#
1*
b11100 /
b10000 <!
b10100 =
b10100 E!
b10000 F
b10000 L!
b10000 T!
b10000 W
b1100 \!
b11111111111111111111111111111111 ]!
b1100 _
b11111111111111111111111111111111 `
b11100 f
b11000 g
b100000 h
b100000 i
b10100 m

#170000
0!
0#
0*

#175000
1!
1#
1*
b100000 /
b10100 <!
b11000 =
b11000 E!
b10100 F
b10100 L!
b10100 T!
b10100 W
b10000 \!
b10000 _
b100000 f
b11100 g
b100100 h
b100100 i
b11000 m

#180000
0!
0#
0*

#185000
1!
1#
1*
b100100 /
b11000 <!
b11100 =
b11100 E!
b11000 F
b11000 L!
b11000 T!
b11000 W
b10100 \!
b10100 _
b100100 f
b100000 g
b101000 h
b101000 i
b11100 m

#190000
0!
0#
0*

#195000
1!
1#
1*
b101000 /
b11100 <!
b100000 =
b100000 E!
b11100 F
b11100 L!
b11100 T!
b11100 W
b11000 \!
b11000 _
b101000 f
b100100 g
b101100 h
b101100 i
b100000 m

#200000
0!
0#
0*

#205000
1!
1#
1*
b101100 /
b100000 <!
b100100 =
b100100 E!
b100000 F
b100000 L!
b100000 T!
b100000 W
b11100 \!
b11100 _
b101100 f
b101000 g
b110000 h
b110000 i
b100100 m

#210000
0!
0#
0*

#215000
1!
1#
1*
b110000 /
b100100 <!
b101000 =
b101000 E!
b100100 F
b100100 L!
b100100 T!
b100100 W
b100000 \!
b100000 _
b110000 f
b101100 g
b110100 h
b110100 i
b101000 m

#220000
0!
0#
0*

#225000
1!
1#
1*
b110100 /
b101000 <!
b101100 =
b101100 E!
b101000 F
b101000 L!
b101000 T!
b101000 W
b100100 \!
b100100 _
b110100 f
b110000 g
b111000 h
b111000 i
b101100 m

#230000
0!
0#
0*

#235000
1!
1#
1*
b111000 /
b101100 <!
b110000 =
b110000 E!
b101100 F
b101100 L!
b101100 T!
b101100 W
b101000 \!
b101000 _
b111000 f
b110100 g
b111100 h
b111100 i
b110000 m

#240000
0!
0#
0*

#245000
1!
1#
1*
b111100 /
b110000 <!
b110100 =
b110100 E!
b110000 F
b110000 L!
b110000 T!
b110000 W
b101100 \!
b101100 _
b111100 f
b111000 g
b1000000 h
b1000000 i
b110100 m

#250000
0!
0#
0*

#255000
1!
1#
1*
b1000000 /
b110100 <!
b111000 =
b111000 E!
b110100 F
b110100 L!
b110100 T!
b110100 W
b110000 \!
b110000 _
b1000000 f
b111100 g
b1000100 h
b1000100 i
b111000 m

#260000
0!
0#
0*

#265000
1!
1#
1*
b1000100 /
b111000 <!
b111100 =
b111100 E!
b111000 F
b111000 L!
b111000 T!
b111000 W
b110100 \!
b110100 _
b1000100 f
b1000000 g
b1001000 h
b1001000 i
b111100 m

#270000
0!
0#
0*

#275000
1!
1#
1*
b1001000 /
b111100 <!
b1000000 =
b1000000 E!
b111100 F
b111100 L!
b111100 T!
b111100 W
b111000 \!
b111000 _
b1001000 f
b1000100 g
b1001100 h
b1001100 i
b1000000 m

#280000
0!
0#
0*

#285000
1!
1#
1*
b1001100 /
b1000000 <!
b1000100 =
b1000100 E!
b1000000 F
b1000000 L!
b1000000 T!
b1000000 W
b111100 \!
b111100 _
b1001100 f
b1001000 g
b1010000 h
b1010000 i
b1000100 m

#290000
0!
0#
0*

#295000
1!
1#
1*
b1010000 /
b1000100 <!
b1001000 =
b1001000 E!
b1000100 F
b1000100 L!
b1000100 T!
b1000100 W
b1000000 \!
b1000000 _
b1010000 f
b1001100 g
b1010100 h
b1010100 i
b1001000 m

#300000
0!
0#
0*

#305000
1!
1#
1*
b1010100 /
b1001000 <!
b1001100 =
b1001100 E!
b1001000 F
b1001000 L!
b1001000 T!
b1001000 W
b1000100 \!
b1000100 _
b1010100 f
b1010000 g
b1011000 h
b1011000 i
b1001100 m

#310000
0!
0#
0*

#315000
1!
1#
1*
b1011000 /
b1001100 <!
b1010000 =
b1010000 E!
b1001100 F
b1001100 L!
b1001100 T!
b1001100 W
b1001000 \!
b1001000 _
b1011000 f
b1010100 g
b1011100 h
b1011100 i
b1010000 m

#320000
0!
0#
0*

#325000
1!
1#
1*
b1011100 /
b1010000 <!
b1010100 =
b1010100 E!
b1010000 F
b1010000 L!
b1010000 T!
b1010000 W
b1001100 \!
b1001100 _
b1011100 f
b1011000 g
b1100000 h
b1100000 i
b1010100 m

#330000
0!
0#
0*

#335000
1!
1#
1*
b1100000 /
b1010100 <!
b1011000 =
b1011000 E!
b1010100 F
b1010100 L!
b1010100 T!
b1010100 W
b1010000 \!
b1010000 _
b1100000 f
b1011100 g
b1100100 h
b1100100 i
b1011000 m

#340000
0!
0#
0*

#345000
1!
1#
1*
b1100100 /
b1011000 <!
b1011100 =
b1011100 E!
b1011000 F
b1011000 L!
b1011000 T!
b1011000 W
b1010100 \!
b1010100 _
b1100100 f
b1100000 g
b1101000 h
b1101000 i
b1011100 m

#350000
0!
0#
0*

#355000
1!
1#
1*
b1101000 /
b1011100 <!
b1100000 =
b1100000 E!
b1011100 F
b1011100 L!
b1011100 T!
b1011100 W
b1011000 \!
b1011000 _
b1101000 f
b1100100 g
b1101100 h
b1101100 i
b1100000 m

#360000
0!
0#
0*

#365000
1!
1#
1*
b1101100 /
b1100000 <!
b1100100 =
b1100100 E!
b1100000 F
b1100000 L!
b1100000 T!
b1100000 W
b1011100 \!
b1011100 _
b1101100 f
b1101000 g
b1110000 h
b1110000 i
b1100100 m

#370000
0!
0#
0*

#375000
1!
1#
1*
b1110000 /
b1100100 <!
b1101000 =
b1101000 E!
b1100100 F
b1100100 L!
b1100100 T!
b1100100 W
b1100000 \!
b1100000 _
b1110000 f
b1101100 g
b1110100 h
b1110100 i
b1101000 m

#380000
0!
0#
0*

#385000
1!
1#
1*
b1110100 /
b1101000 <!
b1101100 =
b1101100 E!
b1101000 F
b1101000 L!
b1101000 T!
b1101000 W
b1100100 \!
b1100100 _
b1110100 f
b1110000 g
b1111000 h
b1111000 i
b1101100 m

#390000
0!
0#
0*

#395000
1!
1#
1*
b1111000 /
b1101100 <!
b1110000 =
b1110000 E!
b1101100 F
b1101100 L!
b1101100 T!
b1101100 W
b1101000 \!
b1101000 _
b1111000 f
b1110100 g
b1111100 h
b1111100 i
b1110000 m

#400000
0!
0#
0*

#405000
1!
1#
1*
b1111100 /
b1110000 <!
b1110100 =
b1110100 E!
b1110000 F
b1110000 L!
b1110000 T!
b1110000 W
b1101100 \!
b1101100 _
b1111100 f
b1111000 g
b10000000 h
b10000000 i
b1110100 m

#410000
0!
0#
0*

#415000
1!
1#
1*
b10000000 /
b1110100 <!
b1111000 =
b1111000 E!
b1110100 F
b1110100 L!
b1110100 T!
b1110100 W
b1110000 \!
b1110000 _
b10000000 f
b1111100 g
b10000100 h
b10000100 i
b1111000 m

#420000
0!
0#
0*

#425000
1!
1#
1*
b10000100 /
b1111000 <!
b1111100 =
b1111100 E!
b1111000 F
b1111000 L!
b1111000 T!
b1111000 W
b1110100 \!
b1110100 _
b10000100 f
b10000000 g
b10001000 h
b10001000 i
b1111100 m

#430000
0!
0#
0*

#435000
1!
1#
1*
b10001000 /
b1111100 <!
b10000000 =
b10000000 E!
b1111100 F
b1111100 L!
b1111100 T!
b1111100 W
b1111000 \!
b1111000 _
b10001000 f
b10000100 g
b10001100 h
b10001100 i
b10000000 m

#440000
0!
0#
0*

#445000
1!
1#
1*
b10001100 /
b10000000 <!
b10000100 =
b10000100 E!
b10000000 F
b10000000 L!
b10000000 T!
b10000000 W
b1111100 \!
b1111100 _
b10001100 f
b10001000 g
b10010000 h
b10010000 i
b10000100 m

#450000
0!
0#
0*

#455000
1!
1#
1*
b10010000 /
b10000100 <!
b10001000 =
b10001000 E!
b10000100 F
b10000100 L!
b10000100 T!
b10000100 W
b10000000 \!
b10000000 _
b10010000 f
b10001100 g
b10010100 h
b10010100 i
b10001000 m

#460000
0!
0#
0*

#465000
1!
1#
1*
b10010100 /
b10001000 <!
b10001100 =
b10001100 E!
b10001000 F
b10001000 L!
b10001000 T!
b10001000 W
b10000100 \!
b10000100 _
b10010100 f
b10010000 g
b10011000 h
b10011000 i
b10001100 m

#470000
0!
0#
0*

#475000
1!
1#
1*
b10011000 /
b10001100 <!
b10010000 =
b10010000 E!
b10001100 F
b10001100 L!
b10001100 T!
b10001100 W
b10001000 \!
b10001000 _
b10011000 f
b10010100 g
b10011100 h
b10011100 i
b10010000 m

#480000
0!
0#
0*

#485000
1!
1#
1*
b10011100 /
b10010000 <!
b10010100 =
b10010100 E!
b10010000 F
b10010000 L!
b10010000 T!
b10010000 W
b10001100 \!
b10001100 _
b10011100 f
b10011000 g
b10100000 h
b10100000 i
b10010100 m

#490000
0!
0#
0*

#495000
1!
1#
1*
b10100000 /
b10010100 <!
b10011000 =
b10011000 E!
b10010100 F
b10010100 L!
b10010100 T!
b10010100 W
b10010000 \!
b10010000 _
b10100000 f
b10011100 g
b10100100 h
b10100100 i
b10011000 m

#500000
0!
0#
0*

#505000
1!
1#
1*
b10100100 /
b10011000 <!
b10011100 =
b10011100 E!
b10011000 F
b10011000 L!
b10011000 T!
b10011000 W
b10010100 \!
b10010100 _
b10100100 f
b10100000 g
b10101000 h
b10101000 i
b10011100 m

#510000
0!
0#
0*

#515000
1!
1#
1*
b10101000 /
b10011100 <!
b10100000 =
b10100000 E!
b10011100 F
b10011100 L!
b10011100 T!
b10011100 W
b10011000 \!
b10011000 _
b10101000 f
b10100100 g
b10101100 h
b10101100 i
b10100000 m

#520000
0!
0#
0*

#525000
1!
1#
1*
b10101100 /
b10100000 <!
b10100100 =
b10100100 E!
b10100000 F
b10100000 L!
b10100000 T!
b10100000 W
b10011100 \!
b10011100 _
b10101100 f
b10101000 g
b10110000 h
b10110000 i
b10100100 m

#530000
0!
0#
0*

#535000
1!
1#
1*
b10110000 /
b10100100 <!
b10101000 =
b10101000 E!
b10100100 F
b10100100 L!
b10100100 T!
b10100100 W
b10100000 \!
b10100000 _
b10110000 f
b10101100 g
b10110100 h
b10110100 i
b10101000 m

#540000
0!
0#
0*

#545000
1!
1#
1*
b10110100 /
b10101000 <!
b10101100 =
b10101100 E!
b10101000 F
b10101000 L!
b10101000 T!
b10101000 W
b10100100 \!
b10100100 _
b10110100 f
b10110000 g
b10111000 h
b10111000 i
b10101100 m

#550000
0!
0#
0*

#555000
1!
1#
1*
b10111000 /
b10101100 <!
b10110000 =
b10110000 E!
b10101100 F
b10101100 L!
b10101100 T!
b10101100 W
b10101000 \!
b10101000 _
b10111000 f
b10110100 g
b10111100 h
b10111100 i
b10110000 m

#560000
0!
0#
0*

#565000
1!
1#
1*
b10111100 /
b10110000 <!
b10110100 =
b10110100 E!
b10110000 F
b10110000 L!
b10110000 T!
b10110000 W
b10101100 \!
b10101100 _
b10111100 f
b10111000 g
b11000000 h
b11000000 i
b10110100 m

#570000
0!
0#
0*

#575000
1!
1#
1*
b11000000 /
b10110100 <!
b10111000 =
b10111000 E!
b10110100 F
b10110100 L!
b10110100 T!
b10110100 W
b10110000 \!
b10110000 _
b11000000 f
b10111100 g
b11000100 h
b11000100 i
b10111000 m

#580000
0!
0#
0*

#585000
1!
1#
1*
b11000100 /
b10111000 <!
b10111100 =
b10111100 E!
b10111000 F
b10111000 L!
b10111000 T!
b10111000 W
b10110100 \!
b10110100 _
b11000100 f
b11000000 g
b11001000 h
b11001000 i
b10111100 m

#590000
0!
0#
0*

#595000
1!
1#
1*
b11001000 /
b10111100 <!
b11000000 =
b11000000 E!
b10111100 F
b10111100 L!
b10111100 T!
b10111100 W
b10111000 \!
b10111000 _
b11001000 f
b11000100 g
b11001100 h
b11001100 i
b11000000 m

#600000
0!
0#
0*

#605000
1!
1#
1*
b11001100 /
b11000000 <!
b11000100 =
b11000100 E!
b11000000 F
b11000000 L!
b11000000 T!
b11000000 W
b10111100 \!
b10111100 _
b11001100 f
b11001000 g
b11010000 h
b11010000 i
b11000100 m

#610000
0!
0#
0*

#615000
1!
1#
1*
b11010000 /
b11000100 <!
b11001000 =
b11001000 E!
b11000100 F
b11000100 L!
b11000100 T!
b11000100 W
b11000000 \!
b11000000 _
b11010000 f
b11001100 g
b11010100 h
b11010100 i
b11001000 m

#620000
0!
0#
0*

#625000
1!
1#
1*
b11010100 /
b11001000 <!
b11001100 =
b11001100 E!
b11001000 F
b11001000 L!
b11001000 T!
b11001000 W
b11000100 \!
b11000100 _
b11010100 f
b11010000 g
b11011000 h
b11011000 i
b11001100 m

#630000
0!
0#
0*

#635000
1!
1#
1*
b11011000 /
b11001100 <!
b11010000 =
b11010000 E!
b11001100 F
b11001100 L!
b11001100 T!
b11001100 W
b11001000 \!
b11001000 _
b11011000 f
b11010100 g
b11011100 h
b11011100 i
b11010000 m

#640000
0!
0#
0*

#645000
1!
1#
1*
b11011100 /
b11010000 <!
b11010100 =
b11010100 E!
b11010000 F
b11010000 L!
b11010000 T!
b11010000 W
b11001100 \!
b11001100 _
b11011100 f
b11011000 g
b11100000 h
b11100000 i
b11010100 m

#650000
0!
0#
0*

#655000
1!
1#
1*
b11100000 /
b11010100 <!
b11011000 =
b11011000 E!
b11010100 F
b11010100 L!
b11010100 T!
b11010100 W
b11010000 \!
b11010000 _
b11100000 f
b11011100 g
b11100100 h
b11100100 i
b11011000 m

#660000
0!
0#
0*

#665000
1!
1#
1*
b11100100 /
b11011000 <!
b11011100 =
b11011100 E!
b11011000 F
b11011000 L!
b11011000 T!
b11011000 W
b11010100 \!
b11010100 _
b11100100 f
b11100000 g
b11101000 h
b11101000 i
b11011100 m

